Textanalyse mit Wörterbüchern und Sentiments mit quanteda
…
Ihr seht: Nicht das technische Erstellen eines Wörterbuchs in R ist schwierig, sondern die richtigen Wörter zu finden.

3.2 Anwendung des Wörterbuchs

Zu Beginn dieses Tutorials haben wir eine DTM der Antrittsreden der US Präsidenten erstellt. In einem zweiten Schritt haben wir mehrere Wörterbücher heruntergeladen, von denen wir jetzt das GI_dict für unsere Sentiment-Analyse der Antrittsreden verwenden.

Die Anwendung des Wörterbuchs ist einfach: 1) wir nutzen die Funktion dfm_lookup um das Wörterbuch auf die DTM anzuwenden, 2) wir konvertieren das Ergebnis in einen tibble-Datensatz mit dem Namen "result". Beide Schritte verbinden wir in einer Pipeline. Der zweite Schritt ist rein optional, aber er erleichtert die nachfolgenden Schritte.

result <-  dtm_speeches %>% dfm_lookup(GI_dict) %>% convert(to = "data.frame") %>% as_tibble
result

## # A tibble: 58 x 3
##    doc_id          negative positive
##    <chr>              <dbl>    <dbl>
##  1 1789-Washington       43      119
##  2 1793-Washington        1        7
##  3 1797-Adams            75      234
##  4 1801-Jefferson        57      178
##  5 1805-Jefferson        71      171
##  6 1809-Madison          39      117
##  7 1813-Madison          54       93
##  8 1817-Monroe          110      311
##  9 1821-Monroe          120      316
## 10 1825-Adams            78      232
## # … with 48 more rows

Jetzt fügen wir die Textlänge hinzu, damit wir die Ergebnisse für die Länge der Dokumente normalisieren können. Hierfür verwenden die Funktion ntoken und legen damit eine neue Variable mit dem Namen "length" an:

result <-  result %>% mutate(length=ntoken(dtm_speeches))

Anschließend können wir einen Gesamt-Sentiment-Score errechnen. Dadurch brauchen wir nicht mit zwei Werten hantieren. Für diese Aufgabe gibt es verschiedene Möglichkeiten: die Anzahl der negativen Sentiments mit der Anzahl der positiven Sentiments zu substrahieren und entweder 1) durch die Gesamtzahl der Sentiments oder 2) durch die Textlänge zu dividieren:

result <-  result %>% mutate(sentiment1=(positive - negative) / (positive + negative)) # 1. Möglichkeit

result <- result %>% mutate(sentiment2=(positive - negative) / length) #  2. Möglichkeit

result

## # A tibble: 58 x 6
##    doc_id          negative positive length sentiment1 sentiment2
##    <chr>              <dbl>    <dbl>  <int>      <dbl>      <dbl>
##  1 1789-Washington       43      119    652      0.469     0.117 
##  2 1793-Washington        1        7     62      0.75      0.0968
##  3 1797-Adams            75      234   1070      0.515     0.149 
##  4 1801-Jefferson        57      178    813      0.515     0.149 
##  5 1805-Jefferson        71      171   1011      0.413     0.0989
##  6 1809-Madison          39      117    526      0.5       0.148 
##  7 1813-Madison          54       93    546      0.265     0.0714
##  8 1817-Monroe          110      311   1561      0.477     0.129 
##  9 1821-Monroe          120      316   2010      0.450     0.0975
## 10 1825-Adams            78      232   1365      0.497     0.113 
## # … with 48 more rows
…
